[{ 
    "value": "llazcano@dgac",
    "link" : "https://mail.google.com/mail/u/0/?tab=wm#inbox",
    "title": "Mi correo institucional"
},
{ 
    "value": "llazcano@dgac",
    "link" : "https://mail.google.com/mail/u/0/?tab=wm#inbox",
    "title": "Mi correo institucional"
},
{ 
    "value": "llazcano@dgac",
    "link" : "https://mail.google.com/mail/u/0/?tab=wm#inbox",
    "title": "Mi correo institucional"
},
{ 
    "value": "llazcano@dgac",
    "link" : "https://mail.google.com/mail/u/0/?tab=wm#inbox",
    "title": "Mi correo institucional"
},
{ 
    "value": "llazcano@dgac",
    "link" : "https://mail.google.com/mail/u/0/?tab=wm#inbox",
    "title": "Mi correo institucional"
},
{ 
    "value": "llazcano@dgac",
    "link" : "https://mail.google.com/mail/u/0/?tab=wm#inbox",
    "title": "Mi correo institucional"
},
{ 
    "value": "llazcano@dgac",
    "link" : "https://mail.google.com/mail/u/0/?tab=wm#inbox",
    "title": "Mi correo institucional"
},
{ 
    "value": "llazcano@dgac",
    "link" : "https://mail.google.com/mail/u/0/?tab=wm#inbox",
    "title": "Mi correo institucional"
}]

